…
#group by region and year, then summarize mean of spending per resident and median park size 
parks_regions <- parks_regions %>% 
  group_by(region, year) %>% 
  summarize(mean_spend = mean(spend_per_resident), 
            mean_med_size = mean(med_park_size_data)) %>% 
  print()
```

    ## `summarise()` has grouped output by 'region'. You can override using the `.groups` argument.

    ## # A tibble: 45 × 4
    ## # Groups:   region [5]
    ##    region     year mean_spend mean_med_size
    ##    <chr>     <dbl>      <dbl>         <dbl>
    ##  1 Midwest    2012       84.5          4.24
    ##  2 Midwest    2013       85.5          4.33
    ##  3 Midwest    2014       87.6          5.58
    ##  4 Midwest    2015       92.8          5.58
    ##  5 Midwest    2016       97            5.58
    ##  6 Midwest    2017      106.           5.52
    ##  7 Midwest    2018      115.           5.74
    ##  8 Midwest    2019      115.           5.72
    ##  9 Midwest    2020      119.           5.72
    ## 10 Northeast  2012      114.           2.33
    ## # … with 35 more rows
…
